3 0.088617 0.378282 0.044669 0.121718
3 0.288905 0.220764 0.030259 0.088305
3 0.385447 0.218377 0.030259 0.083532
3 0.487032 0.218377 0.028818 0.083532
3 0.574207 0.223150 0.030259 0.083532
3 0.863833 0.403341 0.021614 0.062053
