3 0.096882 0.397147 0.075724 0.214715
3 0.042316 0.422673 0.037862 0.115616
3 0.127506 0.143393 0.043430 0.106607
3 0.311247 0.182432 0.032294 0.094595
3 0.912027 0.446697 0.028953 0.100601
3 0.881403 0.457958 0.021158 0.045045
