3 0.116429 0.156250 0.058571 0.172500
3 0.313571 0.146250 0.055714 0.167500
3 0.503571 0.141250 0.055714 0.167500
3 0.720000 0.141250 0.057143 0.167500
3 0.980714 0.458750 0.038571 0.192500
3 0.637143 0.518750 0.031429 0.117500
3 0.704286 0.478750 0.031429 0.132500
