3 0.127061 0.502152 0.021339 0.071736
3 0.148885 0.504304 0.020369 0.070301
3 0.224539 0.330703 0.022308 0.070301
3 0.331717 0.329986 0.021339 0.065997
3 0.584869 0.152080 0.050436 0.143472
3 0.935015 0.523673 0.048497 0.126255
