3 0.2283653846153846 0.4914772727272727 0.055288461538461536 0.10795454545454546
3 0.36538461538461536 0.19602272727272727 0.055288461538461536 0.125
3 0.5865384615384616 0.17045454545454544 0.057692307692307696 0.13352272727272727
3 0.8485576923076923 0.14204545454545456 0.06009615384615385 0.14204545454545456