3 0.12259615384615384 0.22530864197530864 0.04567307692307692 0.09876543209876543
3 0.2548076923076923 0.2191358024691358 0.04567307692307692 0.09567901234567901
3 0.39903846153846156 0.21296296296296297 0.04567307692307692 0.09567901234567901
3 0.8221153846153846 0.4382716049382716 0.06009615384615385 0.12345679012345678