3 0.055288461538461536 0.573394495412844 0.055288461538461536 0.16055045871559634
3 0.9543269230769231 0.5871559633027523 0.036057692307692304 0.12385321100917432
3 0.6995192307692307 0.41743119266055045 0.019230769230769232 0.06880733944954129
3 0.5600961538461539 0.40825688073394495 0.019230769230769232 0.06880733944954129
3 0.53125 0.40825688073394495 0.019230769230769232 0.06422018348623854