3 0.2548076923076923 0.30970149253731344 0.02403846153846154 0.09328358208955224
3 0.8653846153846154 0.30970149253731344 0.07211538461538461 0.20522388059701493
3 0.27884615384615385 0.3805970149253731 0.021634615384615384 0.07462686567164178
3 0.7716346153846154 0.3917910447761194 0.01201923076923077 0.029850746268656716