3 0.10576923076923077 0.46875 0.038461538461538464 0.15104166666666666
3 0.42788461538461536 0.2864583333333333 0.019230769230769232 0.08333333333333333
3 0.5264423076923077 0.2916666666666667 0.021634615384615384 0.08333333333333333
3 0.8798076923076923 0.4791666666666667 0.028846153846153848 0.11979166666666667
3 0.9807692307692307 0.5104166666666666 0.007211538461538462 0.036458333333333336